{
   "results" : [
      {
         "address_components" : [
            {
               "long_name" : "951",
               "short_name" : "951",
               "types" : [ "street_number" ]
            },
            {
               "long_name" : "East 970 North Street",
               "short_name" : "E 970 N St",
               "types" : [ "route" ]
            },
            {
               "long_name" : "Orchard North",
               "short_name" : "Orchard North",
               "types" : [ "neighborhood", "political" ]
            },
            {
               "long_name" : "Orem",
               "short_name" : "Orem",
               "types" : [ "locality", "political" ]
            },
            {
               "long_name" : "Utah County",
               "short_name" : "Utah County",
               "types" : [ "administrative_area_level_2", "political" ]
            },
            {
               "long_name" : "Utah",
               "short_name" : "UT",
               "types" : [ "administrative_area_level_1", "political" ]
            },
            {
               "long_name" : "United States",
               "short_name" : "US",
               "types" : [ "country", "political" ]
            },
            {
               "long_name" : "84097",
               "short_name" : "84097",
               "types" : [ "postal_code" ]
            }
         ],
         "formatted_address" : "951 East 970 North Street, Orem, UT 84097, USA",
         "geometry" : {
            "location" : {
               "lat" : 40.315294,
               "lng" : -111.673134
            },
            "location_type" : "ROOFTOP",
            "viewport" : {
               "northeast" : {
                  "lat" : 40.3166429802915,
                  "lng" : -111.6717850197085
               },
               "southwest" : {
                  "lat" : 40.31394501970851,
                  "lng" : -111.6744829802915
               }
            }
         },
         "partial_match" : true,
         "types" : [ "street_address" ]
      }
   ],
   "status" : "OK"
}